Time: 2019-03-25, 13:15:14
url: http://localhost/project_folder/chalklit-app/get_kibana_custom_filters_api_request_logs
Request {"authtoken":"9200da6f-d93d-4930-8bdf-a9225f80cfc3","opcode":"get_kibana_custom_filters"}

Time: 2019-03-25, 13:16:18
url: http://localhost/project_folder/chalklit-app/get_kibana_custom_filters_api_request_logs
Request {"authtoken":"9200da6f-d93d-4930-8bdf-a9225f80cfc3","opcode":"get_kibana_custom_filters"}

Time: 2019-03-25, 13:18:38
url: http://localhost/project_folder/chalklit-app/get_kibana_custom_filters_api_request_logs
Request {"authtoken":"9200da6f-d93d-4930-8bdf-a9225f80cfc3","opcode":"get_kibana_custom_filters"}

Time: 2019-03-25, 13:20:37
url: http://localhost/project_folder/chalklit-app/get_kibana_custom_filters_api_request_logs
Request {"authtoken":"9200da6f-d93d-4930-8bdf-a9225f80cfc3","opcode":"get_kibana_custom_filters"}

Time: 2019-03-25, 13:21:12
url: http://localhost/project_folder/chalklit-app/get_kibana_custom_filters_api_request_logs
Request {"authtoken":"9200da6f-d93d-4930-8bdf-a9225f80cfc3","opcode":"get_kibana_custom_filters"}

Time: 2019-03-25, 13:21:44
url: http://localhost/project_folder/chalklit-app/get_kibana_custom_filters_api_request_logs
Request {"authtoken":"9200da6f-d93d-4930-8bdf-a9225f80cfc3","opcode":"get_kibana_custom_filters","values":"12,23,34,45"}

Time: 2019-03-25, 13:22:28
url: http://localhost/project_folder/chalklit-app/get_kibana_custom_filters_api_request_logs
Request {"authtoken":"9200da6f-d93d-4930-8bdf-a9225f80cfc3","opcode":"get_kibana_custom_filters","values":"12,23,34,45"}

Time: 2019-03-25, 13:24:31
url: http://localhost/project_folder/chalklit-app/get_kibana_custom_filters_api_request_logs
Request {"authtoken":"9200da6f-d93d-4930-8bdf-a9225f80cfc3","opcode":"get_kibana_custom_filters","values":"12,23,34,45"}

Time: 2019-03-25, 13:24:42
url: http://localhost/project_folder/chalklit-app/get_kibana_custom_filters_api_request_logs
Request {"authtoken":"9200da6f-d93d-4930-8bdf-a9225f80cfc3","opcode":"get_kibana_custom_filters"}

Time: 2019-03-25, 13:24:57
url: http://localhost/project_folder/chalklit-app/get_kibana_custom_filters_api_request_logs
Request {"authtoken":"9200da6f-d93d-4930-8bdf-a9225f80cfc3","opcode":"get_kibana_custom_filters","values":""}

Time: 2019-03-25, 13:25:07
url: http://localhost/project_folder/chalklit-app/get_kibana_custom_filters_api_request_logs
Request {"authtoken":"9200da6f-d93d-4930-8bdf-a9225f80cfc3","opcode":"get_kibana_custom_filters","values":"12"}

Time: 2019-03-25, 13:33:54
url: http://localhost/project_folder/chalklit-app/get_kibana_custom_filters_api_request_logs
Request {"authtoken":"9200da6f-d93d-4930-8bdf-a9225f80cfc3","opcode":"get_kibana_custom_filters","values":"12,23,34,45"}

Time: 2019-03-25, 13:34:57
url: http://localhost/project_folder/chalklit-app/get_kibana_custom_filters_api_request_logs
Request {"authtoken":"9200da6f-d93d-4930-8bdf-a9225f80cfc3","opcode":"get_kibana_custom_filters","values":"12,23,34,45"}

Time: 2019-03-25, 13:37:26
url: http://localhost/project_folder/chalklit-app/get_kibana_custom_filters_api_request_logs
Request {"authtoken":"9200da6f-d93d-4930-8bdf-a9225f80cfc3","opcode":"get_kibana_custom_filters","values":"12,23,34,45"}

Time: 2019-03-25, 13:37:57
url: http://localhost/project_folder/chalklit-app/get_kibana_custom_filters_api_request_logs
Request {"authtoken":"9200da6f-d93d-4930-8bdf-a9225f80cfc3","opcode":"get_kibana_custom_filters","values":"12,23,34,45"}

Time: 2019-03-25, 13:42:02
url: http://localhost/project_folder/chalklit-app/get_kibana_custom_filters_api_request_logs
Request {"authtoken":"9200da6f-d93d-4930-8bdf-a9225f80cfc3","opcode":"get_kibana_custom_filters","values":"12,23,34,45"}

Time: 2019-03-25, 13:50:11
url: http://localhost/project_folder/chalklit-app/get_kibana_custom_filters_api_request_logs
Request {"authtoken":"9200da6f-d93d-4930-8bdf-a9225f80cfc3","opcode":"get_kibana_custom_filters","values":"12,23,34,45"}

