Time: 2019-04-29, 01:43:05
url: http://localhost/project_folder/chalklit_local/get_training_courses_api_request_logs
Request {"opcode":"get_training_courses","login_id":"388"}

Time: 2019-04-29, 01:47:52
url: http://localhost/project_folder/chalklit_local/get_training_courses_api_request_logs
Request {"opcode":"get_training_courses","login_id":"388"}

Time: 2019-04-29, 01:48:11
url: http://localhost/project_folder/chalklit_local/get_training_courses_api_request_logs
Request {"opcode":"get_training_courses","login_id":"388"}

Time: 2019-04-29, 01:51:15
url: http://localhost/project_folder/chalklit_local/get_training_courses_api_request_logs
Request {"opcode":"get_training_courses","login_id":"388"}

Time: 2019-04-29, 01:51:31
url: http://localhost/project_folder/chalklit_local/get_training_courses_api_request_logs
Request {"opcode":"get_training_courses","login_id":"388"}

Time: 2019-04-29, 01:52:15
url: http://localhost/project_folder/chalklit_local/get_training_courses_api_request_logs
Request {"opcode":"get_training_courses","login_id":"388"}

Time: 2019-04-29, 02:06:19
url: http://localhost/project_folder/chalklit_local/get_training_courses_api_request_logs
Request {"opcode":"get_training_courses","login_id":"388"}

Time: 2019-04-29, 12:29:55
url: http://localhost/project_folder/chalklit_local/get_training_courses_api_request_logs
Request {"opcode":"get_training_courses","login_id":"388"}

