Time: 2019-04-19, 12:47:25
url: http://localhost/project_folder/chalklit_local/get_training_agencies_api_request_logs
Request {"opcode":"get_training_agencies","login_id":"388"}

Time: 2019-04-19, 12:48:31
url: http://localhost/project_folder/chalklit_local/get_training_agencies_api_request_logs
Request {"opcode":"get_training_agencies","login_id":"388"}

Time: 2019-04-19, 12:58:44
url: http://localhost/project_folder/chalklit_local/get_training_agencies_api_request_logs
Request {"opcode":"get_training_agencies","login_id":"388"}

Time: 2019-04-19, 13:01:16
url: http://localhost/project_folder/chalklit_local/get_training_agencies_api_request_logs
Request {"opcode":"get_training_agencies","login_id":"388"}

Time: 2019-04-19, 13:01:29
url: http://localhost/project_folder/chalklit_local/get_training_agencies_api_request_logs
Request {"opcode":"get_training_agencies","login_id":"388"}

Time: 2019-04-19, 13:26:23
url: http://localhost/project_folder/chalklit_local/get_training_agencies_api_request_logs
Request {"opcode":"get_training_agencies","login_id":"388"}

Time: 2019-04-19, 13:26:55
url: http://localhost/project_folder/chalklit_local/get_training_agencies_api_request_logs
Request {"opcode":"get_training_agencies","login_id":"388"}

Time: 2019-04-19, 13:27:56
url: http://localhost/project_folder/chalklit_local/get_training_agencies_api_request_logs
Request {"opcode":"get_training_agencies","login_id":"388"}

Time: 2019-04-19, 13:28:19
url: http://localhost/project_folder/chalklit_local/get_training_agencies_api_request_logs
Request {"opcode":"get_training_agencies","login_id":"388"}

Time: 2019-04-19, 13:28:32
url: http://localhost/project_folder/chalklit_local/get_training_agencies_api_request_logs
Request {"opcode":"get_training_agencies","login_id":"388"}

Time: 2019-04-19, 13:28:35
url: http://localhost/project_folder/chalklit_local/get_training_agencies_api_request_logs
Request {"opcode":"get_training_agencies","login_id":"388"}

Time: 2019-04-19, 13:28:38
url: http://localhost/project_folder/chalklit_local/get_training_agencies_api_request_logs
Request {"opcode":"get_training_agencies","login_id":"388"}

Time: 2019-04-19, 13:28:40
url: http://localhost/project_folder/chalklit_local/get_training_agencies_api_request_logs
Request {"opcode":"get_training_agencies","login_id":"388"}

Time: 2019-04-19, 13:28:49
url: http://localhost/project_folder/chalklit_local/get_training_agencies_api_request_logs
Request {"opcode":"get_training_agencies","login_id":"388"}

Time: 2019-04-19, 16:14:30
url: http://localhost/project_folder/chalklit_local/get_training_agencies_api_request_logs
Request {"opcode":"get_training_agencies","login_id":"388"}

Time: 2019-04-19, 16:14:37
url: http://localhost/project_folder/chalklit_local/get_training_agencies_api_request_logs
Request {"opcode":"get_training_agencies","login_id":"388"}

Time: 2019-04-19, 16:34:36
url: http://localhost/project_folder/chalklit_local/get_training_agencies_api_request_logs
Request {"opcode":"get_training_agencies","login_id":"388"}

Time: 2019-04-19, 16:38:06
url: http://localhost/project_folder/chalklit_local/get_training_agencies_api_request_logs
Request {"opcode":"get_training_agencies","login_id":"388"}

