Time: 2019-04-29, 10:24:07
url: http://localhost/project_folder/chalklit_local/get_rm_ti_glimpse_mewp_api_request_logs
Request {"opcode":"get_rm_ti_glimpse_mewp","login_id":"388","tiid":"129"}

Time: 2019-04-29, 10:25:08
url: http://localhost/project_folder/chalklit_local/get_rm_ti_glimpse_mewp_api_request_logs
Request {"opcode":"get_rm_ti_glimpse_mewp","login_id":"388","tiid":"129"}

Time: 2019-04-29, 10:46:22
url: http://localhost/project_folder/chalklit_local/get_rm_ti_glimpse_mewp_api_request_logs
Request {"opcode":"get_rm_ti_glimpse_mewp","login_id":"388","tiid":"129"}

Time: 2019-04-29, 12:32:05
url: http://localhost/project_folder/chalklit_local/get_rm_ti_glimpse_mewp_api_request_logs
Request {"opcode":"get_rm_ti_glimpse_mewp","login_id":"388","tiid":"129"}

Time: 2019-04-29, 12:33:46
url: http://localhost/project_folder/chalklit_local/get_rm_ti_glimpse_mewp_api_request_logs
Request {"opcode":"get_rm_ti_glimpse_mewp","login_id":"388","tiid":"129"}

Time: 2019-04-29, 12:34:00
url: http://localhost/project_folder/chalklit_local/get_rm_ti_glimpse_mewp_api_request_logs
Request {"opcode":"get_rm_ti_glimpse_mewp","login_id":"388","tiid":"129"}

Time: 2019-04-29, 12:35:56
url: http://localhost/project_folder/chalklit_local/get_rm_ti_glimpse_mewp_api_request_logs
Request {"opcode":"get_rm_ti_glimpse_mewp","login_id":"388","tiid":"129"}

Time: 2019-04-29, 12:36:17
url: http://localhost/project_folder/chalklit_local/get_rm_ti_glimpse_mewp_api_request_logs
Request {"opcode":"get_rm_ti_glimpse_mewp","login_id":"388","tiid":"129"}

Time: 2019-04-29, 12:49:15
url: http://localhost/project_folder/chalklit_local/get_rm_ti_glimpse_mewp_api_request_logs
Request {"opcode":"get_rm_ti_glimpse_mewp","login_id":"388","tiid":"129"}

Time: 2019-04-29, 12:56:05
url: http://localhost/project_folder/chalklit_local/get_rm_ti_glimpse_mewp_api_request_logs
Request {"opcode":"get_rm_ti_glimpse_mewp","login_id":"388","tiid":"129"}

Time: 2019-04-29, 12:57:11
url: http://localhost/project_folder/chalklit_local/get_rm_ti_glimpse_mewp_api_request_logs
Request {"opcode":"get_rm_ti_glimpse_mewp","login_id":"388","tiid":"129"}

Time: 2019-04-29, 13:11:39
url: http://localhost/project_folder/chalklit_local/get_rm_ti_glimpse_mewp_api_request_logs
Request {"opcode":"get_rm_ti_glimpse_mewp","login_id":"388","tiid":"129"}

Time: 2019-04-29, 13:13:00
url: http://localhost/project_folder/chalklit_local/get_rm_ti_glimpse_mewp_api_request_logs
Request {"opcode":"get_rm_ti_glimpse_mewp","login_id":"388","tiid":"129"}

Time: 2019-04-29, 13:27:36
url: http://localhost/project_folder/chalklit_local/get_rm_ti_glimpse_mewp_api_request_logs
Request {"opcode":"get_rm_ti_glimpse_mewp","login_id":"388","tiid":"129"}

Time: 2019-04-29, 16:28:02
url: http://localhost/project_folder/chalklit_local/get_rm_ti_glimpse_mewp_api_request_logs
Request {"opcode":"get_rm_ti_glimpse_mewp","login_id":"388","tiid":"129"}

Time: 2019-04-29, 17:07:19
url: http://localhost/project_folder/chalklit_local/get_rm_ti_glimpse_mewp_api_request_logs
Request {"opcode":"get_rm_ti_glimpse_mewp","login_id":"388","tiid":"129"}

Time: 2019-04-29, 17:08:05
url: http://localhost/project_folder/chalklit_local/get_rm_ti_glimpse_mewp_api_request_logs
Request {"opcode":"get_rm_ti_glimpse_mewp","login_id":"388","tiid":"129"}

Time: 2019-04-29, 17:09:32
url: http://localhost/project_folder/chalklit_local/get_rm_ti_glimpse_mewp_api_request_logs
Request {"opcode":"get_rm_ti_glimpse_mewp","login_id":"388","tiid":"129"}

Time: 2019-04-29, 17:09:41
url: http://localhost/project_folder/chalklit_local/get_rm_ti_glimpse_mewp_api_request_logs
Request {"opcode":"get_rm_ti_glimpse_mewp","login_id":"388","tiid":"129"}

Time: 2019-04-29, 17:09:48
url: http://localhost/project_folder/chalklit_local/get_rm_ti_glimpse_mewp_api_request_logs
Request {"opcode":"get_rm_ti_glimpse_mewp","login_id":"388","tiid":"129"}

Time: 2019-04-29, 17:09:53
url: http://localhost/project_folder/chalklit_local/get_rm_ti_glimpse_mewp_api_request_logs
Request {"opcode":"get_rm_ti_glimpse_mewp","login_id":"388","tiid":"129"}

Time: 2019-04-29, 17:20:31
url: http://localhost/project_folder/chalklit_local/get_rm_ti_glimpse_mewp_api_request_logs
Request {"opcode":"get_rm_ti_glimpse_mewp","login_id":"388","tiid":"129"}

Time: 2019-04-29, 17:21:19
url: http://localhost/project_folder/chalklit_local/get_rm_ti_glimpse_mewp_api_request_logs
Request {"opcode":"get_rm_ti_glimpse_mewp","login_id":"388","tiid":"129"}

Time: 2019-04-29, 22:43:52
url: http://localhost/project_folder/chalklit_local/get_rm_ti_glimpse_mewp_api_request_logs
Request {"opcode":"get_rm_ti_glimpse_mewp","login_id":"388","tiid":"129"}

Time: 2019-04-29, 23:06:27
url: http://localhost/project_folder/chalklit_local/get_rm_ti_glimpse_mewp_api_request_logs
Request {"opcode":"get_rm_ti_glimpse_mewp","login_id":"388","tiid":"129"}

Time: 2019-04-29, 23:07:27
url: http://localhost/project_folder/chalklit_local/get_rm_ti_glimpse_mewp_api_request_logs
Request {"opcode":"get_rm_ti_glimpse_mewp","login_id":"388","tiid":"129"}

