Time: 2019-04-19, 13:26:24
url: http://localhost/project_folder/chalklit_local/get_training_courses_api_request_logs
Request {"opcode":"get_training_courses","login_id":"388"}

Time: 2019-04-19, 13:26:55
url: http://localhost/project_folder/chalklit_local/get_training_courses_api_request_logs
Request {"opcode":"get_training_courses","login_id":"388"}

Time: 2019-04-19, 13:27:56
url: http://localhost/project_folder/chalklit_local/get_training_courses_api_request_logs
Request {"opcode":"get_training_courses","login_id":"388"}

Time: 2019-04-19, 13:28:19
url: http://localhost/project_folder/chalklit_local/get_training_courses_api_request_logs
Request {"opcode":"get_training_courses","login_id":"388"}

Time: 2019-04-19, 13:28:33
url: http://localhost/project_folder/chalklit_local/get_training_courses_api_request_logs
Request {"opcode":"get_training_courses","login_id":"388"}

Time: 2019-04-19, 16:14:30
url: http://localhost/project_folder/chalklit_local/get_training_courses_api_request_logs
Request {"opcode":"get_training_courses","login_id":"388"}

Time: 2019-04-19, 16:34:36
url: http://localhost/project_folder/chalklit_local/get_training_courses_api_request_logs
Request {"opcode":"get_training_courses","login_id":"388"}

Time: 2019-04-19, 16:38:07
url: http://localhost/project_folder/chalklit_local/get_training_courses_api_request_logs
Request {"opcode":"get_training_courses","login_id":"388"}

