Time: 2019-04-26, 11:03:58
url: http://localhost/project_folder/chalklit_local/glimpse_api_request_logs
Request {"login_id":"388","opcode":"glimpse","tmrefid":"388","tiid":"129"}

Time: 2019-04-26, 11:05:08
url: http://localhost/project_folder/chalklit_local/glimpse_api_request_logs
Request {"login_id":"388","opcode":"glimpse","tmrefid":"388","tiid":"129"}

Time: 2019-04-26, 11:05:47
url: http://localhost/project_folder/chalklit_local/glimpse_api_request_logs
Request {"login_id":"388","opcode":"glimpse","tmrefid":"388","tiid":"129"}

Time: 2019-04-26, 11:06:23
url: http://localhost/project_folder/chalklit_local/glimpse_api_request_logs
Request {"login_id":"388","opcode":"glimpse","tmrefid":"388","tiid":"38"}

Time: 2019-04-26, 11:07:10
url: http://localhost/project_folder/chalklit_local/glimpse_api_request_logs
Request {"login_id":"388","opcode":"glimpse","tmrefid":"388","tiid":"39"}

Time: 2019-04-26, 11:14:13
url: http://localhost/project_folder/chalklit_local/glimpse_api_request_logs
Request {"opcode":"glimpse","tiid":"129","tmrefid":"388","login_id":"388"}

Time: 2019-04-26, 11:16:17
url: http://localhost/project_folder/chalklit_local/glimpse_api_request_logs
Request {"opcode":"glimpse","tiid":"129","tmrefid":"388","login_id":"388"}

Time: 2019-04-26, 11:18:11
url: http://localhost/project_folder/chalklit_local/glimpse_api_request_logs
Request {"opcode":"glimpse","tiid":"129","tmrefid":"388","login_id":"388"}

Time: 2019-04-26, 11:51:08
url: http://localhost/project_folder/chalklit_local/glimpse_api_request_logs
Request {"opcode":"glimpse","tiid":"129","tmrefid":"388","login_id":"388"}

Time: 2019-04-26, 11:52:17
url: http://localhost/project_folder/chalklit_local/glimpse_api_request_logs
Request {"opcode":"glimpse","tiid":"129","tmrefid":"388","login_id":"388"}

Time: 2019-04-26, 11:53:59
url: http://localhost/project_folder/chalklit_local/glimpse_api_request_logs
Request {"opcode":"glimpse","tiid":"129","tmrefid":"388","login_id":"388"}

Time: 2019-04-26, 11:54:47
url: http://localhost/project_folder/chalklit_local/glimpse_api_request_logs
Request {"opcode":"glimpse","tiid":"129","tmrefid":"388","login_id":"388"}

Time: 2019-04-26, 11:57:07
url: http://localhost/project_folder/chalklit_local/glimpse_api_request_logs
Request {"login_id":"388","opcode":"glimpse","tmrefid":"388","tiid":"139"}

Time: 2019-04-26, 12:00:10
url: http://localhost/project_folder/chalklit_local/glimpse_api_request_logs
Request {"opcode":"glimpse","tiid":"129","tmrefid":"388","login_id":"388"}

Time: 2019-04-26, 12:02:05
url: http://localhost/project_folder/chalklit_local/glimpse_api_request_logs
Request {"opcode":"glimpse","tiid":"129","tmrefid":"388","login_id":"388"}

Time: 2019-04-26, 12:02:55
url: http://localhost/project_folder/chalklit_local/glimpse_api_request_logs
Request {"opcode":"glimpse","tiid":"129","tmrefid":"388","login_id":"388"}

Time: 2019-04-26, 12:11:30
url: http://localhost/project_folder/chalklit_local/glimpse_api_request_logs
Request {"opcode":"glimpse","tiid":"129","tmrefid":"388","login_id":"388"}

Time: 2019-04-26, 12:24:40
url: http://localhost/project_folder/chalklit_local/glimpse_api_request_logs
Request {"login_id":"388","opcode":"glimpse","tiid":"139"}

Time: 2019-04-26, 12:24:51
url: http://localhost/project_folder/chalklit_local/glimpse_api_request_logs
Request {"login_id":"388","opcode":"glimpse","tiid":"37"}

Time: 2019-04-26, 12:24:58
url: http://localhost/project_folder/chalklit_local/glimpse_api_request_logs
Request {"login_id":"388","opcode":"glimpse","tiid":"38"}

Time: 2019-04-26, 12:25:04
url: http://localhost/project_folder/chalklit_local/glimpse_api_request_logs
Request {"login_id":"388","opcode":"glimpse","tiid":"139"}

Time: 2019-04-26, 12:27:34
url: http://localhost/project_folder/chalklit_local/glimpse_api_request_logs
Request {"opcode":"glimpse","login_id":"388","tiid":"37"}

Time: 2019-04-26, 12:27:37
url: http://localhost/project_folder/chalklit_local/glimpse_api_request_logs
Request {"opcode":"glimpse","login_id":"388","tiid":"37"}

Time: 2019-04-26, 12:27:51
url: http://localhost/project_folder/chalklit_local/glimpse_api_request_logs
Request {"opcode":"glimpse","login_id":"388","tiid":"37"}

Time: 2019-04-26, 12:28:56
url: http://localhost/project_folder/chalklit_local/glimpse_api_request_logs
Request {"opcode":"glimpse","login_id":"388","tiid":"37"}

Time: 2019-04-26, 12:31:56
url: http://localhost/project_folder/chalklit_local/glimpse_api_request_logs
Request {"opcode":"glimpse","login_id":"388","tiid":"37"}

Time: 2019-04-26, 12:32:45
url: http://localhost/project_folder/chalklit_local/glimpse_api_request_logs
Request {"opcode":"glimpse","login_id":"388","tiid":"37"}

Time: 2019-04-26, 12:33:03
url: http://localhost/project_folder/chalklit_local/glimpse_api_request_logs
Request {"opcode":"glimpse","login_id":"388","tiid":"37"}

Time: 2019-04-26, 12:41:32
url: http://localhost/project_folder/chalklit_local/glimpse_api_request_logs
Request {"opcode":"glimpse","login_id":"388","tiid":"37"}

Time: 2019-04-26, 12:42:16
url: http://localhost/project_folder/chalklit_local/glimpse_api_request_logs
Request {"opcode":"glimpse","login_id":"388","tiid":"37"}

Time: 2019-04-26, 12:50:33
url: http://localhost/project_folder/chalklit_local/glimpse_api_request_logs
Request {"opcode":"glimpse","login_id":"388","tiid":"37"}

Time: 2019-04-26, 12:52:00
url: http://localhost/project_folder/chalklit_local/glimpse_api_request_logs
Request {"opcode":"glimpse","login_id":"388","tiid":"37"}

Time: 2019-04-26, 12:52:19
url: http://localhost/project_folder/chalklit_local/glimpse_api_request_logs
Request {"opcode":"glimpse","login_id":"388","tiid":"38"}

Time: 2019-04-26, 12:53:30
url: http://localhost/project_folder/chalklit_local/glimpse_api_request_logs
Request {"opcode":"glimpse","login_id":"388","tiid":"37"}

Time: 2019-04-26, 12:54:17
url: http://localhost/project_folder/chalklit_local/glimpse_api_request_logs
Request {"opcode":"glimpse","login_id":"388","tiid":"37"}

Time: 2019-04-26, 12:54:45
url: http://localhost/project_folder/chalklit_local/glimpse_api_request_logs
Request {"opcode":"glimpse","login_id":"388","tiid":"37"}

Time: 2019-04-26, 12:55:49
url: http://localhost/project_folder/chalklit_local/glimpse_api_request_logs
Request {"login_id":"388","opcode":"glimpse","tiid":"139"}

Time: 2019-04-26, 12:56:37
url: http://localhost/project_folder/chalklit_local/glimpse_api_request_logs
Request {"login_id":"388","opcode":"glimpse","tiid":"139"}

Time: 2019-04-26, 12:57:05
url: http://localhost/project_folder/chalklit_local/glimpse_api_request_logs
Request {"login_id":"388","opcode":"glimpse","tiid":"129"}

Time: 2019-04-26, 12:58:04
url: http://localhost/project_folder/chalklit_local/glimpse_api_request_logs
Request {"opcode":"glimpse","login_id":"388","tiid":"129"}

Time: 2019-04-26, 12:59:32
url: http://localhost/project_folder/chalklit_local/glimpse_api_request_logs
Request {"opcode":"glimpse","login_id":"388","tiid":"129"}

Time: 2019-04-26, 13:00:35
url: http://localhost/project_folder/chalklit_local/glimpse_api_request_logs
Request {"opcode":"glimpse","login_id":"388","tiid":"129"}

Time: 2019-04-26, 13:02:58
url: http://localhost/project_folder/chalklit_local/glimpse_api_request_logs
Request {"opcode":"glimpse","login_id":"388","tiid":"129"}

Time: 2019-04-26, 13:06:14
url: http://localhost/project_folder/chalklit_local/glimpse_api_request_logs
Request {"opcode":"glimpse","login_id":"388","tiid":"129"}

Time: 2019-04-26, 13:07:43
url: http://localhost/project_folder/chalklit_local/glimpse_api_request_logs
Request {"opcode":"glimpse","login_id":"388","tiid":"129"}

Time: 2019-04-26, 13:08:26
url: http://localhost/project_folder/chalklit_local/glimpse_api_request_logs
Request {"opcode":"glimpse","login_id":"388","tiid":"129"}

Time: 2019-04-26, 13:09:16
url: http://localhost/project_folder/chalklit_local/glimpse_api_request_logs
Request {"opcode":"glimpse","login_id":"388","tiid":"129"}

Time: 2019-04-26, 13:11:24
url: http://localhost/project_folder/chalklit_local/glimpse_api_request_logs
Request {"opcode":"glimpse","login_id":"388","tiid":"129"}

Time: 2019-04-26, 13:15:01
url: http://localhost/project_folder/chalklit_local/glimpse_api_request_logs
Request {"opcode":"glimpse","login_id":"388","tiid":"129"}

Time: 2019-04-26, 13:16:05
url: http://localhost/project_folder/chalklit_local/glimpse_api_request_logs
Request {"opcode":"glimpse","login_id":"388","tiid":"129"}

Time: 2019-04-26, 13:28:34
url: http://localhost/project_folder/chalklit_local/glimpse_api_request_logs
Request {"opcode":"glimpse","login_id":"388","tiid":"129"}

Time: 2019-04-26, 13:29:50
url: http://localhost/project_folder/chalklit_local/glimpse_api_request_logs
Request {"opcode":"glimpse","login_id":"388","tiid":"129"}

Time: 2019-04-26, 13:30:21
url: http://localhost/project_folder/chalklit_local/glimpse_api_request_logs
Request {"opcode":"glimpse","login_id":"388","tiid":"129"}

Time: 2019-04-26, 13:31:34
url: http://localhost/project_folder/chalklit_local/glimpse_api_request_logs
Request {"opcode":"glimpse","login_id":"388","tiid":"129"}

Time: 2019-04-26, 13:35:21
url: http://localhost/project_folder/chalklit_local/glimpse_api_request_logs
Request {"opcode":"glimpse","login_id":"388","tiid":"129"}

Time: 2019-04-26, 13:36:41
url: http://localhost/project_folder/chalklit_local/glimpse_api_request_logs
Request {"opcode":"glimpse","login_id":"388","tiid":"129"}

Time: 2019-04-26, 13:39:50
url: http://localhost/project_folder/chalklit_local/glimpse_api_request_logs
Request {"opcode":"glimpse","login_id":"388","tiid":"129"}

Time: 2019-04-26, 13:58:49
url: http://localhost/project_folder/chalklit_local/glimpse_api_request_logs
Request {"opcode":"glimpse","login_id":"388","tiid":"129"}

Time: 2019-04-26, 15:07:42
url: http://localhost/project_folder/chalklit_local/glimpse_api_request_logs
Request {"opcode":"glimpse","login_id":"388","tiid":"129"}

Time: 2019-04-26, 15:09:43
url: http://localhost/project_folder/chalklit_local/glimpse_api_request_logs
Request {"opcode":"glimpse","login_id":"388","tiid":"129"}

Time: 2019-04-26, 15:10:00
url: http://localhost/project_folder/chalklit_local/glimpse_api_request_logs
Request {"opcode":"glimpse","login_id":"388","tiid":"129"}

Time: 2019-04-26, 15:12:59
url: http://localhost/project_folder/chalklit_local/glimpse_api_request_logs
Request {"opcode":"glimpse","login_id":"388","tiid":"129"}

Time: 2019-04-26, 15:23:41
url: http://localhost/project_folder/chalklit_local/glimpse_api_request_logs
Request {"opcode":"glimpse","login_id":"388","tiid":"129"}

Time: 2019-04-26, 15:24:15
url: http://localhost/project_folder/chalklit_local/glimpse_api_request_logs
Request {"opcode":"glimpse","login_id":"388","tiid":"129"}

Time: 2019-04-26, 15:24:52
url: http://localhost/project_folder/chalklit_local/glimpse_api_request_logs
Request {"opcode":"glimpse","login_id":"388","tiid":"129"}

Time: 2019-04-26, 15:45:24
url: http://localhost/project_folder/chalklit_local/glimpse_api_request_logs
Request {"opcode":"glimpse","login_id":"388","tiid":"129"}

Time: 2019-04-26, 15:47:24
url: http://localhost/project_folder/chalklit_local/glimpse_api_request_logs
Request {"opcode":"glimpse","login_id":"388","tiid":"129","trnname":""}

Time: 2019-04-26, 15:58:01
url: http://localhost/project_folder/chalklit_local/glimpse_api_request_logs
Request {"opcode":"glimpse","login_id":"388","tiid":"129","ti_info":"Array"}

Time: 2019-04-26, 15:59:38
url: http://localhost/project_folder/chalklit_local/glimpse_api_request_logs
Request {"opcode":"glimpse","login_id":"388","tiid":"129"}

Time: 2019-04-26, 16:00:45
url: http://localhost/project_folder/chalklit_local/glimpse_api_request_logs
Request {"opcode":"glimpse","login_id":"388","tiid":"129"}

Time: 2019-04-26, 16:02:18
url: http://localhost/project_folder/chalklit_local/glimpse_api_request_logs
Request {"opcode":"glimpse","login_id":"388","tiid":"129"}

Time: 2019-04-26, 16:04:08
url: http://localhost/project_folder/chalklit_local/glimpse_api_request_logs
Request {"opcode":"glimpse","login_id":"388","tiid":"129"}

Time: 2019-04-26, 16:04:26
url: http://localhost/project_folder/chalklit_local/glimpse_api_request_logs
Request {"opcode":"glimpse","login_id":"388","tiid":"129"}

Time: 2019-04-26, 16:05:24
url: http://localhost/project_folder/chalklit_local/glimpse_api_request_logs
Request {"opcode":"glimpse","login_id":"388","tiid":"129"}

Time: 2019-04-26, 16:08:14
url: http://localhost/project_folder/chalklit_local/glimpse_api_request_logs
Request {"opcode":"glimpse","login_id":"388","tiid":"129"}

Time: 2019-04-26, 16:09:46
url: http://localhost/project_folder/chalklit_local/glimpse_api_request_logs
Request {"opcode":"glimpse","login_id":"388","tiid":"129"}

Time: 2019-04-26, 16:14:44
url: http://localhost/project_folder/chalklit_local/glimpse_api_request_logs
Request {"opcode":"glimpse","login_id":"388","tiid":"129"}

Time: 2019-04-26, 16:16:17
url: http://localhost/project_folder/chalklit_local/glimpse_api_request_logs
Request {"opcode":"glimpse","login_id":"388","tiid":"129"}

Time: 2019-04-26, 16:17:06
url: http://localhost/project_folder/chalklit_local/glimpse_api_request_logs
Request {"opcode":"glimpse","login_id":"388","tiid":"129"}

Time: 2019-04-26, 16:22:34
url: http://localhost/project_folder/chalklit_local/glimpse_api_request_logs
Request {"opcode":"glimpse","login_id":"388","tiid":"129"}

Time: 2019-04-26, 16:24:29
url: http://localhost/project_folder/chalklit_local/glimpse_api_request_logs
Request {"opcode":"glimpse","login_id":"388","tiid":"129"}

Time: 2019-04-26, 16:26:06
url: http://localhost/project_folder/chalklit_local/glimpse_api_request_logs
Request {"opcode":"glimpse","login_id":"388","tiid":"129"}

Time: 2019-04-26, 16:27:15
url: http://localhost/project_folder/chalklit_local/glimpse_api_request_logs
Request {"opcode":"glimpse","login_id":"388","tiid":"129"}

Time: 2019-04-26, 16:31:38
url: http://localhost/project_folder/chalklit_local/glimpse_api_request_logs
Request {"opcode":"glimpse","login_id":"388","tiid":"129"}

Time: 2019-04-26, 16:32:18
url: http://localhost/project_folder/chalklit_local/glimpse_api_request_logs
Request {"opcode":"glimpse","login_id":"388","tiid":"129"}

Time: 2019-04-26, 16:34:12
url: http://localhost/project_folder/chalklit_local/glimpse_api_request_logs
Request {"opcode":"glimpse","login_id":"388","tiid":"129"}

Time: 2019-04-26, 16:35:36
url: http://localhost/project_folder/chalklit_local/glimpse_api_request_logs
Request {"opcode":"glimpse","login_id":"388","tiid":"129"}

Time: 2019-04-26, 16:39:55
url: http://localhost/project_folder/chalklit_local/glimpse_api_request_logs
Request {"opcode":"glimpse","login_id":"388","tiid":"129"}

Time: 2019-04-26, 16:40:46
url: http://localhost/project_folder/chalklit_local/glimpse_api_request_logs
Request {"opcode":"glimpse","login_id":"388","tiid":"129"}

Time: 2019-04-26, 16:41:21
url: http://localhost/project_folder/chalklit_local/glimpse_api_request_logs
Request {"opcode":"glimpse","login_id":"388","tiid":"129"}

Time: 2019-04-26, 16:42:04
url: http://localhost/project_folder/chalklit_local/glimpse_api_request_logs
Request {"opcode":"glimpse","login_id":"388","tiid":"129"}

Time: 2019-04-26, 16:50:00
url: http://localhost/project_folder/chalklit_local/glimpse_api_request_logs
Request {"opcode":"glimpse","login_id":"388","tiid":"129"}

Time: 2019-04-26, 16:58:49
url: http://localhost/project_folder/chalklit_local/glimpse_api_request_logs
Request {"opcode":"glimpse","login_id":"388","tiid":"129"}

Time: 2019-04-26, 17:04:03
url: http://localhost/project_folder/chalklit_local/glimpse_api_request_logs
Request {"opcode":"glimpse","login_id":"388","tiid":"129"}

Time: 2019-04-26, 17:06:56
url: http://localhost/project_folder/chalklit_local/glimpse_api_request_logs
Request {"opcode":"glimpse","login_id":"388","tiid":"129"}

Time: 2019-04-26, 17:07:23
url: http://localhost/project_folder/chalklit_local/glimpse_api_request_logs
Request {"opcode":"glimpse","login_id":"388","tiid":"129"}

Time: 2019-04-26, 17:07:36
url: http://localhost/project_folder/chalklit_local/glimpse_api_request_logs
Request {"opcode":"glimpse","login_id":"388","tiid":"129"}

Time: 2019-04-26, 17:07:49
url: http://localhost/project_folder/chalklit_local/glimpse_api_request_logs
Request {"opcode":"glimpse","login_id":"388","tiid":"129"}

Time: 2019-04-26, 17:07:54
url: http://localhost/project_folder/chalklit_local/glimpse_api_request_logs
Request {"opcode":"glimpse","login_id":"388","tiid":"129"}

Time: 2019-04-26, 17:09:08
url: http://localhost/project_folder/chalklit_local/glimpse_api_request_logs
Request {"opcode":"glimpse","login_id":"388","tiid":"129"}

Time: 2019-04-26, 17:09:24
url: http://localhost/project_folder/chalklit_local/glimpse_api_request_logs
Request {"opcode":"glimpse","login_id":"388","tiid":"129"}

Time: 2019-04-26, 17:09:55
url: http://localhost/project_folder/chalklit_local/glimpse_api_request_logs
Request {"opcode":"glimpse","login_id":"388","tiid":"129"}

Time: 2019-04-26, 17:10:23
url: http://localhost/project_folder/chalklit_local/glimpse_api_request_logs
Request {"opcode":"glimpse","login_id":"388","tiid":"129"}

Time: 2019-04-26, 17:11:19
url: http://localhost/project_folder/chalklit_local/glimpse_api_request_logs
Request {"opcode":"glimpse","login_id":"388","tiid":"129"}

Time: 2019-04-26, 17:44:12
url: http://localhost/project_folder/chalklit_local/glimpse_api_request_logs
Request {"opcode":"glimpse","login_id":"388","tiid":"129"}

Time: 2019-04-26, 17:44:23
url: http://localhost/project_folder/chalklit_local/glimpse_api_request_logs
Request {"opcode":"glimpse","login_id":"388","tiid":"129"}

Time: 2019-04-26, 17:44:30
url: http://localhost/project_folder/chalklit_local/glimpse_api_request_logs
Request {"opcode":"glimpse","login_id":"388","tiid":"129"}

Time: 2019-04-26, 17:44:41
url: http://localhost/project_folder/chalklit_local/glimpse_api_request_logs
Request {"opcode":"glimpse","login_id":"388","tiid":"129"}

Time: 2019-04-26, 17:44:52
url: http://localhost/project_folder/chalklit_local/glimpse_api_request_logs
Request {"opcode":"glimpse","login_id":"388","tiid":"129"}

Time: 2019-04-26, 17:45:39
url: http://localhost/project_folder/chalklit_local/glimpse_api_request_logs
Request {"opcode":"glimpse","login_id":"388","tiid":"129"}

Time: 2019-04-26, 17:47:43
url: http://localhost/project_folder/chalklit_local/glimpse_api_request_logs
Request {"opcode":"glimpse","login_id":"388","tiid":"129"}

Time: 2019-04-26, 17:49:25
url: http://localhost/project_folder/chalklit_local/glimpse_api_request_logs
Request {"opcode":"glimpse","login_id":"388","tiid":"129"}

Time: 2019-04-26, 17:50:10
url: http://localhost/project_folder/chalklit_local/glimpse_api_request_logs
Request {"opcode":"glimpse","login_id":"388","tiid":"129"}

Time: 2019-04-26, 17:50:48
url: http://localhost/project_folder/chalklit_local/glimpse_api_request_logs
Request {"opcode":"glimpse","login_id":"388","tiid":"129"}

Time: 2019-04-26, 17:51:26
url: http://localhost/project_folder/chalklit_local/glimpse_api_request_logs
Request {"opcode":"glimpse","login_id":"388","tiid":"129"}

Time: 2019-04-26, 17:52:21
url: http://localhost/project_folder/chalklit_local/glimpse_api_request_logs
Request {"opcode":"glimpse","login_id":"388","tiid":"129"}

Time: 2019-04-26, 17:52:57
url: http://localhost/project_folder/chalklit_local/glimpse_api_request_logs
Request {"opcode":"glimpse","login_id":"388","tiid":"129"}

Time: 2019-04-26, 17:53:36
url: http://localhost/project_folder/chalklit_local/glimpse_api_request_logs
Request {"opcode":"glimpse","login_id":"388","tiid":"129"}

Time: 2019-04-26, 17:53:39
url: http://localhost/project_folder/chalklit_local/glimpse_api_request_logs
Request {"opcode":"glimpse","login_id":"388","tiid":"129"}

Time: 2019-04-26, 17:55:05
url: http://localhost/project_folder/chalklit_local/glimpse_api_request_logs
Request {"opcode":"glimpse","login_id":"388","tiid":"129"}

Time: 2019-04-26, 17:58:18
url: http://localhost/project_folder/chalklit_local/glimpse_api_request_logs
Request {"opcode":"glimpse","login_id":"388","tiid":"129"}

Time: 2019-04-26, 18:00:01
url: http://localhost/project_folder/chalklit_local/glimpse_api_request_logs
Request {"opcode":"glimpse","login_id":"388","tiid":"129"}

Time: 2019-04-26, 18:01:56
url: http://localhost/project_folder/chalklit_local/glimpse_api_request_logs
Request {"opcode":"glimpse","login_id":"388","tiid":"129"}

Time: 2019-04-26, 18:02:45
url: http://localhost/project_folder/chalklit_local/glimpse_api_request_logs
Request {"opcode":"glimpse","login_id":"388","tiid":"129"}

Time: 2019-04-26, 18:04:09
url: http://localhost/project_folder/chalklit_local/glimpse_api_request_logs
Request {"opcode":"glimpse","login_id":"388","tiid":"129"}

Time: 2019-04-26, 18:28:25
url: http://localhost/project_folder/chalklit_local/glimpse_api_request_logs
Request {"opcode":"glimpse","login_id":"388","tiid":"129"}

Time: 2019-04-26, 18:33:40
url: http://localhost/project_folder/chalklit_local/glimpse_api_request_logs
Request {"opcode":"glimpse","login_id":"388","tiid":"129"}

Time: 2019-04-26, 18:34:07
url: http://localhost/project_folder/chalklit_local/glimpse_api_request_logs
Request {"opcode":"glimpse","login_id":"388","tiid":"129"}

Time: 2019-04-26, 18:34:59
url: http://localhost/project_folder/chalklit_local/glimpse_api_request_logs
Request {"opcode":"glimpse","login_id":"388","tiid":"129"}

Time: 2019-04-26, 18:35:39
url: http://localhost/project_folder/chalklit_local/glimpse_api_request_logs
Request {"opcode":"glimpse","login_id":"388","tiid":"129"}

Time: 2019-04-26, 18:36:04
url: http://localhost/project_folder/chalklit_local/glimpse_api_request_logs
Request {"opcode":"glimpse","login_id":"388","tiid":"129"}

Time: 2019-04-26, 18:36:47
url: http://localhost/project_folder/chalklit_local/glimpse_api_request_logs
Request {"opcode":"glimpse","login_id":"388","tiid":"129"}

Time: 2019-04-26, 18:37:21
url: http://localhost/project_folder/chalklit_local/glimpse_api_request_logs
Request {"opcode":"glimpse","login_id":"388","tiid":"129"}

Time: 2019-04-26, 18:38:32
url: http://localhost/project_folder/chalklit_local/glimpse_api_request_logs
Request {"opcode":"glimpse","login_id":"388","tiid":"129"}

Time: 2019-04-26, 18:39:50
url: http://localhost/project_folder/chalklit_local/glimpse_api_request_logs
Request {"opcode":"glimpse","login_id":"388","tiid":"129"}

Time: 2019-04-26, 18:40:15
url: http://localhost/project_folder/chalklit_local/glimpse_api_request_logs
Request {"opcode":"glimpse","login_id":"388","tiid":"129"}

Time: 2019-04-26, 18:42:21
url: http://localhost/project_folder/chalklit_local/glimpse_api_request_logs
Request {"opcode":"glimpse","login_id":"388","tiid":"129"}

Time: 2019-04-26, 19:16:54
url: http://localhost/project_folder/chalklit_local/glimpse_api_request_logs
Request {"opcode":"glimpse","login_id":"388","tiid":"129"}

