Time: 2019-04-19, 13:28:39
url: http://localhost/project_folder/chalklit_local/list_of_mapping_users_to_trainings_api_request_logs
Request {"opcode":"list_of_mapping_users_to_trainings","login_id":"388"}

