Time: 2019-04-27, 01:49:44
url: http://localhost/project_folder/chalklit_local/user_roles_api_request_logs
Request {"opcode":"user_roles","rlmrole":"CL-Relationship Manager","tmrefid":"388","login_id":"388"}

Time: 2019-04-27, 02:13:14
url: http://localhost/project_folder/chalklit_local/user_roles_api_request_logs
Request {"opcode":"user_roles","rlmrole":"CL-Relationship Manager","tmrefid":"388","login_id":"388"}

Time: 2019-04-27, 02:16:53
url: http://localhost/project_folder/chalklit_local/user_roles_api_request_logs
Request {"opcode":"user_roles","rlmrole":"CL-Relationship Manager","tmrefid":"388","login_id":"388"}

Time: 2019-04-27, 02:16:59
url: http://localhost/project_folder/chalklit_local/user_roles_api_request_logs
Request {"opcode":"user_roles","rlmrole":"CL-Relationship Manager","tmrefid":"388","login_id":"388"}

Time: 2019-04-27, 02:17:08
url: http://localhost/project_folder/chalklit_local/user_roles_api_request_logs
Request {"opcode":"user_roles","rlmrole":"CL-Relationship Manager","tmrefid":"388","login_id":"388"}

Time: 2019-04-27, 02:18:15
url: http://localhost/project_folder/chalklit_local/user_roles_api_request_logs
Request {"opcode":"user_roles","rlmrole":"CL-Relationship Manager","tmrefid":"388","login_id":"388"}

Time: 2019-04-27, 02:18:35
url: http://localhost/project_folder/chalklit_local/user_roles_api_request_logs
Request {"opcode":"user_roles","login_id":"388","tmrefid":"388","rlmrole":"CL-Relationship Manager"}

Time: 2019-04-27, 02:18:37
url: http://localhost/project_folder/chalklit_local/user_roles_api_request_logs
Request {"opcode":"user_roles","login_id":"388","tmrefid":"388","rlmrole":"CL-Relationship Manager"}

Time: 2019-04-27, 02:18:38
url: http://localhost/project_folder/chalklit_local/user_roles_api_request_logs
Request {"opcode":"user_roles","rlmrole":"CL-Relationship Manager","tmrefid":"388","login_id":"388"}

Time: 2019-04-27, 02:28:44
url: http://localhost/project_folder/chalklit_local/user_roles_api_request_logs
Request {"opcode":"user_roles","rlmrole":"CL-Relationship Manager","tmrefid":"388","login_id":"388"}

Time: 2019-04-27, 02:34:35
url: http://localhost/project_folder/chalklit_local/user_roles_api_request_logs
Request {"opcode":"user_roles","rlmrole":"CL-Relationship Manager","tmrefid":"388","login_id":"388"}

Time: 2019-04-27, 02:35:11
url: http://localhost/project_folder/chalklit_local/user_roles_api_request_logs
Request {"opcode":"user_roles","rlmrole":"CL-Relationship Manager","tmrefid":"388","login_id":"388"}

Time: 2019-04-27, 02:36:20
url: http://localhost/project_folder/chalklit_local/user_roles_api_request_logs
Request {"opcode":"user_roles","rlmrole":"CL-Relationship Manager","tmrefid":"388","login_id":"388"}

Time: 2019-04-27, 02:37:42
url: http://localhost/project_folder/chalklit_local/user_roles_api_request_logs
Request {"opcode":"user_roles","rlmrole":"CL-Relationship Manager","tmrefid":"388","login_id":"388"}

Time: 2019-04-27, 02:40:10
url: http://localhost/project_folder/chalklit_local/user_roles_api_request_logs
Request {"opcode":"user_roles","rlmrole":"CL-Relationship Manager","tmrefid":"388","login_id":"388"}

Time: 2019-04-27, 02:48:38
url: http://localhost/project_folder/chalklit_local/user_roles_api_request_logs
Request {"opcode":"user_roles","rlmrole":"CL-Relationship Manager","tmrefid":"388","login_id":"388"}

Time: 2019-04-27, 02:55:05
url: http://localhost/project_folder/chalklit_local/user_roles_api_request_logs
Request {"opcode":"user_roles","rlmrole":"CL-Relationship Manager","tmrefid":"388","login_id":"388"}

Time: 2019-04-27, 02:55:23
url: http://localhost/project_folder/chalklit_local/user_roles_api_request_logs
Request {"opcode":"user_roles","rlmrole":"CL-Relationship Manager","tmrefid":"388","login_id":"388"}

Time: 2019-04-27, 02:57:00
url: http://localhost/project_folder/chalklit_local/user_roles_api_request_logs
Request {"opcode":"user_roles","rlmrole":"CL-Relationship Manager","tmrefid":"388","login_id":"388"}

Time: 2019-04-27, 02:58:30
url: http://localhost/project_folder/chalklit_local/user_roles_api_request_logs
Request {"opcode":"user_roles","rlmrole":"CL-Relationship Manager","tmrefid":"388","login_id":"388"}

Time: 2019-04-27, 02:59:36
url: http://localhost/project_folder/chalklit_local/user_roles_api_request_logs
Request {"opcode":"user_roles","rlmrole":"CL-Relationship Manager","tmrefid":"388","login_id":"388"}

Time: 2019-04-27, 03:00:46
url: http://localhost/project_folder/chalklit_local/user_roles_api_request_logs
Request {"opcode":"user_roles","rlmrole":"CL-Relationship Manager","tmrefid":"388","login_id":"388"}

Time: 2019-04-27, 03:02:05
url: http://localhost/project_folder/chalklit_local/user_roles_api_request_logs
Request {"opcode":"user_roles","rlmrole":"CL-Relationship Manager","tmrefid":"388","login_id":"388"}

Time: 2019-04-27, 03:08:35
url: http://localhost/project_folder/chalklit_local/user_roles_api_request_logs
Request {"opcode":"user_roles","rlmrole":"CL-Relationship Manager","tmrefid":"388","login_id":"388"}

Time: 2019-04-27, 03:24:29
url: http://localhost/project_folder/chalklit_local/user_roles_api_request_logs
Request {"opcode":"user_roles","rlmrole":"CL-Relationship Manager","tmrefid":"388","login_id":"388"}

Time: 2019-04-27, 03:24:49
url: http://localhost/project_folder/chalklit_local/user_roles_api_request_logs
Request {"opcode":"user_roles","rlmrole":"CL-Relationship Manager","tmrefid":"388","login_id":"388"}

Time: 2019-04-27, 03:25:13
url: http://localhost/project_folder/chalklit_local/user_roles_api_request_logs
Request {"opcode":"user_roles","rlmrole":"CL-Relationship Manager","tmrefid":"388","login_id":"388"}

Time: 2019-04-27, 03:26:29
url: http://localhost/project_folder/chalklit_local/user_roles_api_request_logs
Request {"opcode":"user_roles","rlmrole":"CL-Relationship Manager","tmrefid":"388","login_id":"388"}

Time: 2019-04-27, 03:32:01
url: http://localhost/project_folder/chalklit_local/user_roles_api_request_logs
Request {"opcode":"user_roles","rlmrole":"CL-Relationship Manager","tmrefid":"388","login_id":"388"}

Time: 2019-04-27, 10:54:07
url: http://localhost/project_folder/chalklit_local/user_roles_api_request_logs
Request {"opcode":"user_roles","login_id":"388","tmrefid":"388","rlmrole":"CL-Relationship Manager"}

Time: 2019-04-27, 10:54:15
url: http://localhost/project_folder/chalklit_local/user_roles_api_request_logs
Request {"opcode":"user_roles","rlmrole":"CL-Relationship Manager","tmrefid":"388","login_id":"388"}

