Time: 2019-04-22, 16:04:42
url: http://localhost/project_folder/chalklit_local/user_roles_api_request_logs
Request {"authtoken":"9200da6f-d93d-4930-8bdf-a9225f80cfc3","opcode":"user_roles","for_manage_rights":"20855"}

Time: 2019-04-22, 16:05:58
url: http://localhost/project_folder/chalklit_local/user_roles_api_request_logs
Request {"authtoken":"9200da6f-d93d-4930-8bdf-a9225f80cfc3","opcode":"user_roles","for_manage_rights":"20855"}

Time: 2019-04-22, 16:06:25
url: http://localhost/project_folder/chalklit_local/user_roles_api_request_logs
Request {"authtoken":"9200da6f-d93d-4930-8bdf-a9225f80cfc3","opcode":"user_roles","for_manage_rights":"20855"}

Time: 2019-04-22, 16:06:55
url: http://localhost/project_folder/chalklit_local/user_roles_api_request_logs
Request {"authtoken":"9200da6f-d93d-4930-8bdf-a9225f80cfc3","opcode":"user_roles","for_manage_rights":"20855"}

Time: 2019-04-22, 16:07:54
url: http://localhost/project_folder/chalklit_local/user_roles_api_request_logs
Request {"authtoken":"9200da6f-d93d-4930-8bdf-a9225f80cfc3","opcode":"user_roles","for_manage_rights":"20855"}

Time: 2019-04-22, 16:08:22
url: http://localhost/project_folder/chalklit_local/user_roles_api_request_logs
Request {"authtoken":"9200da6f-d93d-4930-8bdf-a9225f80cfc3","opcode":"user_roles","for_manage_rights":"20855"}

Time: 2019-04-22, 16:09:54
url: http://localhost/project_folder/chalklit_local/user_roles_api_request_logs
Request {"authtoken":"9200da6f-d93d-4930-8bdf-a9225f80cfc3","opcode":"user_roles","for_manage_rights":"20855"}

Time: 2019-04-22, 16:10:27
url: http://localhost/project_folder/chalklit_local/user_roles_api_request_logs
Request {"authtoken":"9200da6f-d93d-4930-8bdf-a9225f80cfc3","opcode":"user_roles","for_manage_rights":"20855"}

Time: 2019-04-22, 16:10:52
url: http://localhost/project_folder/chalklit_local/user_roles_api_request_logs
Request {"authtoken":"9200da6f-d93d-4930-8bdf-a9225f80cfc3","opcode":"user_roles","for_manage_rights":"20855"}

Time: 2019-04-22, 16:11:37
url: http://localhost/project_folder/chalklit_local/user_roles_api_request_logs
Request {"authtoken":"9200da6f-d93d-4930-8bdf-a9225f80cfc3","opcode":"user_roles","for_manage_rights":"20855"}

Time: 2019-04-22, 16:13:13
url: http://localhost/project_folder/chalklit_local/user_roles_api_request_logs
Request {"authtoken":"9200da6f-d93d-4930-8bdf-a9225f80cfc3","opcode":"user_roles","tmrefid":"388"}

Time: 2019-04-22, 16:14:44
url: http://localhost/project_folder/chalklit_local/user_roles_api_request_logs
Request {"authtoken":"9200da6f-d93d-4930-8bdf-a9225f80cfc3","opcode":"user_roles","tmrefid":"388","rlmrole":"CL-Training Manager"}

Time: 2019-04-22, 16:14:59
url: http://localhost/project_folder/chalklit_local/user_roles_api_request_logs
Request {"authtoken":"9200da6f-d93d-4930-8bdf-a9225f80cfc3","opcode":"user_roles","tmrefid":"388","rlmrole":"CL-Relationship Manager"}

Time: 2019-04-22, 16:16:26
url: http://localhost/project_folder/chalklit_local/user_roles_api_request_logs
Request {"authtoken":"9200da6f-d93d-4930-8bdf-a9225f80cfc3","opcode":"user_roles","tmrefid":"388","rlmrole":"CL-Relationship Manager"}

Time: 2019-04-22, 16:45:29
url: http://localhost/project_folder/chalklit_local/user_roles_api_request_logs
Request {"authtoken":"9200da6f-d93d-4930-8bdf-a9225f80cfc3","opcode":"user_roles","tmrefid":"388","rlmrole":"CL-Relationship Manager"}

Time: 2019-04-22, 16:52:28
url: http://localhost/project_folder/chalklit_local/user_roles_api_request_logs
Request {"authtoken":"9200da6f-d93d-4930-8bdf-a9225f80cfc3","opcode":"user_roles","tmrefid":"388","rlmrole":"CL-Relationship Manager"}

Time: 2019-04-22, 18:05:57
url: http://localhost/project_folder/chalklit_local/user_roles_api_request_logs
Request {"login_id":"388","opcode":"user_roles","tmrefid":"388","rlmrole":"CL-Relationship Manager"}

Time: 2019-04-22, 18:12:58
url: http://localhost/project_folder/chalklit_local/user_roles_api_request_logs
Request {"login_id":"388","opcode":"user_roles","tmrefid":"388","rlmrole":"CL-Relationship Manager"}

Time: 2019-04-22, 18:30:02
url: http://localhost/project_folder/chalklit_local/user_roles_api_request_logs
Request {"opcode":"user_roles","login_id":"388","tmrefid":"388","rlmrole":"CL-Relationship Manager"}

Time: 2019-04-22, 18:32:04
url: http://localhost/project_folder/chalklit_local/user_roles_api_request_logs
Request {"opcode":"user_roles","login_id":"388","tmrefid":"388","rlmrole":"CL-Relationship Manager"}

Time: 2019-04-22, 18:44:05
url: http://localhost/project_folder/chalklit_local/user_roles_api_request_logs
Request {"opcode":"user_roles","login_id":"388","tmrefid":"388","rlmrole":"CL-Relationship Manager"}

Time: 2019-04-22, 18:44:36
url: http://localhost/project_folder/chalklit_local/user_roles_api_request_logs
Request {"opcode":"user_roles","login_id":"388","tmrefid":"388","rlmrole":"CL-Relationship Manager"}

Time: 2019-04-22, 18:45:24
url: http://localhost/project_folder/chalklit_local/user_roles_api_request_logs
Request {"opcode":"user_roles","login_id":"388","tmrefid":"388","rlmrole":"CL-Relationship Manager"}

Time: 2019-04-22, 18:45:41
url: http://localhost/project_folder/chalklit_local/user_roles_api_request_logs
Request {"opcode":"user_roles","login_id":"388","tmrefid":"388","rlmrole":"CL-Relationship Manager"}

Time: 2019-04-22, 18:45:52
url: http://localhost/project_folder/chalklit_local/user_roles_api_request_logs
Request {"opcode":"user_roles","login_id":"388","tmrefid":"388","rlmrole":"CL-Relationship Manager"}

Time: 2019-04-22, 18:47:04
url: http://localhost/project_folder/chalklit_local/user_roles_api_request_logs
Request {"opcode":"user_roles","login_id":"388","tmrefid":"388","rlmrole":"CL-Relationship Manager"}

Time: 2019-04-22, 18:47:10
url: http://localhost/project_folder/chalklit_local/user_roles_api_request_logs
Request {"opcode":"user_roles","login_id":"388","tmrefid":"388","rlmrole":"CL-Relationship Manager"}

Time: 2019-04-22, 18:48:17
url: http://localhost/project_folder/chalklit_local/user_roles_api_request_logs
Request {"opcode":"user_roles","login_id":"388","tmrefid":"388","rlmrole":"CL-Relationship Manager"}

Time: 2019-04-22, 18:51:28
url: http://localhost/project_folder/chalklit_local/user_roles_api_request_logs
Request {"opcode":"user_roles","login_id":"388","tmrefid":"388","rlmrole":"CL-Relationship Manager"}

Time: 2019-04-22, 18:53:19
url: http://localhost/project_folder/chalklit_local/user_roles_api_request_logs
Request {"opcode":"user_roles","login_id":"388","tmrefid":"388","rlmrole":"CL-Relationship Manager"}

Time: 2019-04-22, 18:57:13
url: http://localhost/project_folder/chalklit_local/user_roles_api_request_logs
Request {"opcode":"user_roles","login_id":"388","tmrefid":"388","rlmrole":"CL-Relationship Manager"}

Time: 2019-04-22, 19:00:13
url: http://localhost/project_folder/chalklit_local/user_roles_api_request_logs
Request {"opcode":"user_roles","login_id":"388","tmrefid":"388","rlmrole":"CL-Relationship Manager"}

Time: 2019-04-22, 19:00:46
url: http://localhost/project_folder/chalklit_local/user_roles_api_request_logs
Request {"opcode":"user_roles","login_id":"388","tmrefid":"388","rlmrole":"CL-Relationship Manager"}

Time: 2019-04-22, 19:01:25
url: http://localhost/project_folder/chalklit_local/user_roles_api_request_logs
Request {"opcode":"user_roles","login_id":"388","tmrefid":"388","rlmrole":"CL-Relationship Manager"}

Time: 2019-04-22, 19:02:20
url: http://localhost/project_folder/chalklit_local/user_roles_api_request_logs
Request {"opcode":"user_roles","login_id":"388","tmrefid":"388","rlmrole":"CL-Relationship Manager"}

Time: 2019-04-22, 19:02:35
url: http://localhost/project_folder/chalklit_local/user_roles_api_request_logs
Request {"opcode":"user_roles","login_id":"388","tmrefid":"388","rlmrole":"CL-Relationship Manager"}

Time: 2019-04-22, 19:02:52
url: http://localhost/project_folder/chalklit_local/user_roles_api_request_logs
Request {"opcode":"user_roles","login_id":"388","tmrefid":"388","rlmrole":"CL-Relationship Manager"}

Time: 2019-04-22, 19:03:14
url: http://localhost/project_folder/chalklit_local/user_roles_api_request_logs
Request {"opcode":"user_roles","login_id":"388","tmrefid":"388","rlmrole":"CL-Relationship Manager"}

Time: 2019-04-22, 19:04:12
url: http://localhost/project_folder/chalklit_local/user_roles_api_request_logs
Request {"opcode":"user_roles","login_id":"388","tmrefid":"388","rlmrole":"CL-Relationship Manager"}

Time: 2019-04-22, 19:16:43
url: http://localhost/project_folder/chalklit_local/user_roles_api_request_logs
Request {"opcode":"user_roles","login_id":"388","tmrefid":"388","rlmrole":"CL-Relationship Manager"}

Time: 2019-04-22, 19:17:09
url: http://localhost/project_folder/chalklit_local/user_roles_api_request_logs
Request {"opcode":"user_roles","login_id":"388","tmrefid":"388","rlmrole":"CL-Relationship Manager"}

Time: 2019-04-22, 19:18:24
url: http://localhost/project_folder/chalklit_local/user_roles_api_request_logs
Request {"opcode":"user_roles","login_id":"388","tmrefid":"388","rlmrole":"CL-Relationship Manager"}

Time: 2019-04-22, 19:18:46
url: http://localhost/project_folder/chalklit_local/user_roles_api_request_logs
Request {"opcode":"user_roles","login_id":"388","tmrefid":"388","rlmrole":"CL-Relationship Manager"}

Time: 2019-04-22, 19:19:11
url: http://localhost/project_folder/chalklit_local/user_roles_api_request_logs
Request {"opcode":"user_roles","login_id":"388","tmrefid":"388","rlmrole":"CL-Relationship Manager"}

Time: 2019-04-22, 19:20:04
url: http://localhost/project_folder/chalklit_local/user_roles_api_request_logs
Request {"opcode":"user_roles","login_id":"388","tmrefid":"388","rlmrole":"CL-Relationship Manager"}

Time: 2019-04-22, 19:21:04
url: http://localhost/project_folder/chalklit_local/user_roles_api_request_logs
Request {"opcode":"user_roles","login_id":"388","tmrefid":"388","rlmrole":"CL-Relationship Manager"}

Time: 2019-04-22, 19:21:16
url: http://localhost/project_folder/chalklit_local/user_roles_api_request_logs
Request {"opcode":"user_roles","login_id":"388","tmrefid":"388","rlmrole":"CL-Relationship Manager"}

Time: 2019-04-22, 19:21:33
url: http://localhost/project_folder/chalklit_local/user_roles_api_request_logs
Request {"opcode":"user_roles","login_id":"388","tmrefid":"388","rlmrole":"CL-Relationship Manager"}

Time: 2019-04-22, 19:26:00
url: http://localhost/project_folder/chalklit_local/user_roles_api_request_logs
Request {"opcode":"user_roles","login_id":"388","tmrefid":"388","rlmrole":"CL-Relationship Manager"}

Time: 2019-04-22, 19:26:30
url: http://localhost/project_folder/chalklit_local/user_roles_api_request_logs
Request {"opcode":"user_roles","login_id":"388","tmrefid":"388","rlmrole":"CL-Relationship Manager"}

Time: 2019-04-22, 19:27:00
url: http://localhost/project_folder/chalklit_local/user_roles_api_request_logs
Request {"opcode":"user_roles","login_id":"388","tmrefid":"388","rlmrole":"CL-Relationship Manager"}

Time: 2019-04-22, 19:28:24
url: http://localhost/project_folder/chalklit_local/user_roles_api_request_logs
Request {"opcode":"user_roles","login_id":"388","tmrefid":"388","rlmrole":"CL-Relationship Manager"}

Time: 2019-04-22, 19:28:48
url: http://localhost/project_folder/chalklit_local/user_roles_api_request_logs
Request {"opcode":"user_roles","login_id":"388","tmrefid":"388","rlmrole":"CL-Relationship Manager"}

Time: 2019-04-22, 19:29:39
url: http://localhost/project_folder/chalklit_local/user_roles_api_request_logs
Request {"opcode":"user_roles","login_id":"388","tmrefid":"388","rlmrole":"CL-Relationship Manager"}

Time: 2019-04-22, 19:30:16
url: http://localhost/project_folder/chalklit_local/user_roles_api_request_logs
Request {"opcode":"user_roles","login_id":"388","tmrefid":"388","rlmrole":"CL-Relationship Manager"}

Time: 2019-04-22, 19:31:24
url: http://localhost/project_folder/chalklit_local/user_roles_api_request_logs
Request {"opcode":"user_roles","login_id":"388","tmrefid":"388","rlmrole":"CL-Relationship Manager"}

Time: 2019-04-22, 19:39:16
url: http://localhost/project_folder/chalklit_local/user_roles_api_request_logs
Request {"opcode":"user_roles","login_id":"388","tmrefid":"388","rlmrole":"CL-Relationship Manager"}

